%YAML 1.1
%TAG !u! tag:unity3d.com,2011:
--- !u!114 &11400000
MonoBehaviour:
  m_ObjectHideFlags: 0
  m_CorrespondingSourceObject: {fileID: 0}
  m_PrefabInstance: {fileID: 0}
  m_PrefabAsset: {fileID: 0}
  m_GameObject: {fileID: 0}
  m_Enabled: 1
  m_EditorHideFlags: 0
  m_Script: {fileID: 11500000, guid: 8140c5aa741148a39984b654deb6acf3, type: 3}
  m_Name: Types Of Quality Level 3 - Uncommon
  m_EditorClassIdentifier: 
  _name: Uncommon
  _color: {r: 0.6784314, g: 0.8980393, b: 0.36078432, a: 1}
  _level: 3
