%YAML 1.1
%TAG !u! tag:unity3d.com,2011:
--- !u!114 &11400000
MonoBehaviour:
  m_ObjectHideFlags: 0
  m_CorrespondingSourceObject: {fileID: 0}
  m_PrefabInstance: {fileID: 0}
  m_PrefabAsset: {fileID: 0}
  m_GameObject: {fileID: 0}
  m_Enabled: 1
  m_EditorHideFlags: 0
  m_Script: {fileID: 11500000, guid: 1b9de226fde145f9980d66ea8d7044cc, type: 3}
  m_Name: Weapon Ability 1
  m_EditorClassIdentifier: 
  _type: {fileID: 11400000, guid: 83990637bc32e1e4bb33038b626401fc, type: 2}
  _name: Weapon 1
  _icon: {fileID: 21300000, guid: 030d61925e2f98f4d86e171153ec39e1, type: 3}
  _stats:
    _range: 2
    _damage: 2
    _attackInterval: 1
