%YAML 1.1
%TAG !u! tag:unity3d.com,2011:
--- !u!1001 &7636968158819725868
PrefabInstance:
  m_ObjectHideFlags: 0
  serializedVersion: 2
  m_Modification:
    serializedVersion: 3
    m_TransformParent: {fileID: 0}
    m_Modifications:
    - target: {fileID: 326659776130805872, guid: 742b60cbbfa85074a988d2a28973e426, type: 3}
      propertyPath: m_Name
      value: Charge Earth Variant
      objectReference: {fileID: 0}
    - target: {fileID: 7102725787697405621, guid: 742b60cbbfa85074a988d2a28973e426, type: 3}
      propertyPath: m_LocalPosition.x
      value: 0
      objectReference: {fileID: 0}
    - target: {fileID: 7102725787697405621, guid: 742b60cbbfa85074a988d2a28973e426, type: 3}
      propertyPath: m_LocalPosition.y
      value: 0
      objectReference: {fileID: 0}
    - target: {fileID: 7102725787697405621, guid: 742b60cbbfa85074a988d2a28973e426, type: 3}
      propertyPath: m_LocalPosition.z
      value: 0
      objectReference: {fileID: 0}
    - target: {fileID: 7102725787697405621, guid: 742b60cbbfa85074a988d2a28973e426, type: 3}
      propertyPath: m_LocalRotation.w
      value: 1
      objectReference: {fileID: 0}
    - target: {fileID: 7102725787697405621, guid: 742b60cbbfa85074a988d2a28973e426, type: 3}
      propertyPath: m_LocalRotation.x
      value: 0
      objectReference: {fileID: 0}
    - target: {fileID: 7102725787697405621, guid: 742b60cbbfa85074a988d2a28973e426, type: 3}
      propertyPath: m_LocalRotation.y
      value: 0
      objectReference: {fileID: 0}
    - target: {fileID: 7102725787697405621, guid: 742b60cbbfa85074a988d2a28973e426, type: 3}
      propertyPath: m_LocalRotation.z
      value: 0
      objectReference: {fileID: 0}
    - target: {fileID: 7102725787697405621, guid: 742b60cbbfa85074a988d2a28973e426, type: 3}
      propertyPath: m_LocalEulerAnglesHint.x
      value: 0
      objectReference: {fileID: 0}
    - target: {fileID: 7102725787697405621, guid: 742b60cbbfa85074a988d2a28973e426, type: 3}
      propertyPath: m_LocalEulerAnglesHint.y
      value: 0
      objectReference: {fileID: 0}
    - target: {fileID: 7102725787697405621, guid: 742b60cbbfa85074a988d2a28973e426, type: 3}
      propertyPath: m_LocalEulerAnglesHint.z
      value: 0
      objectReference: {fileID: 0}
    - target: {fileID: 8190951172639612278, guid: 742b60cbbfa85074a988d2a28973e426, type: 3}
      propertyPath: m_Color.b
      value: 0.13725491
      objectReference: {fileID: 0}
    - target: {fileID: 8190951172639612278, guid: 742b60cbbfa85074a988d2a28973e426, type: 3}
      propertyPath: m_Color.g
      value: 0.25490198
      objectReference: {fileID: 0}
    - target: {fileID: 8190951172639612278, guid: 742b60cbbfa85074a988d2a28973e426, type: 3}
      propertyPath: m_Color.r
      value: 0.47058827
      objectReference: {fileID: 0}
    m_RemovedComponents: []
    m_RemovedGameObjects: []
    m_AddedGameObjects: []
    m_AddedComponents: []
  m_SourcePrefab: {fileID: 100100000, guid: 742b60cbbfa85074a988d2a28973e426, type: 3}
