%YAML 1.1
%TAG !u! tag:unity3d.com,2011:
--- !u!114 &11400000
MonoBehaviour:
  m_ObjectHideFlags: 0
  m_CorrespondingSourceObject: {fileID: 0}
  m_PrefabInstance: {fileID: 0}
  m_PrefabAsset: {fileID: 0}
  m_GameObject: {fileID: 0}
  m_Enabled: 1
  m_EditorHideFlags: 0
  m_Script: {fileID: 11500000, guid: 81ed60a00bcc473fbb2a1fb2e788fe3a, type: 3}
  m_Name: Types Of Creatures Demon
  m_EditorClassIdentifier: 
  _name: Demon
  _icon: {fileID: 21300000, guid: 0c953374878407c499d834c139249b94, type: 3}
  _advantage: {fileID: 11400000, guid: 4ff64157598d68a468a3f14136be0d27, type: 2}
  _disadvantage: {fileID: 11400000, guid: 2404fd0df81b2c746abc51a2df6b7ba8, type: 2}
