%YAML 1.1
%TAG !u! tag:unity3d.com,2011:
--- !u!114 &11400000
MonoBehaviour:
  m_ObjectHideFlags: 0
  m_CorrespondingSourceObject: {fileID: 0}
  m_PrefabInstance: {fileID: 0}
  m_PrefabAsset: {fileID: 0}
  m_GameObject: {fileID: 0}
  m_Enabled: 1
  m_EditorHideFlags: 0
  m_Script: {fileID: 11500000, guid: 81ed60a00bcc473fbb2a1fb2e788fe3a, type: 3}
  m_Name: Types Of Creatures Humanoind
  m_EditorClassIdentifier: 
  _name: Humanoind
  _icon: {fileID: 21300000, guid: 1421aaf226c600649b2f2704b48ef0f2, type: 3}
  _advantage: {fileID: 11400000, guid: 27e4c6565a7a1fe44b037906502a1fd2, type: 2}
  _disadvantage: {fileID: 11400000, guid: d75580967df7d114d9591beddf02d8a0, type: 2}
