%YAML 1.1
%TAG !u! tag:unity3d.com,2011:
--- !u!114 &11400000
MonoBehaviour:
  m_ObjectHideFlags: 0
  m_CorrespondingSourceObject: {fileID: 0}
  m_PrefabInstance: {fileID: 0}
  m_PrefabAsset: {fileID: 0}
  m_GameObject: {fileID: 0}
  m_Enabled: 1
  m_EditorHideFlags: 0
  m_Script: {fileID: 11500000, guid: 2540f93253b74e1eb5c5d6120adbe27d, type: 3}
  m_Name: Tower Inventory Item Winter Ogre Rare
  m_EditorClassIdentifier: 
  _count: 0
  _towerData: {fileID: 11400000, guid: b0fa8bb8c8d38204bb562dc09a883d9e, type: 2}
  _qualityType: {fileID: 11400000, guid: b73bb9707da56ae43ab422b3d11142dc, type: 2}
