%YAML 1.1
%TAG !u! tag:unity3d.com,2011:
--- !u!114 &11400000
MonoBehaviour:
  m_ObjectHideFlags: 0
  m_CorrespondingSourceObject: {fileID: 0}
  m_PrefabInstance: {fileID: 0}
  m_PrefabAsset: {fileID: 0}
  m_GameObject: {fileID: 0}
  m_Enabled: 1
  m_EditorHideFlags: 0
  m_Script: {fileID: 11500000, guid: ec66d1e44adb45b4a69df3ef65a3c425, type: 3}
  m_Name: Init Log Data Launch Task
  m_EditorClassIdentifier: 
  _coreLogData: {fileID: 11400000, guid: d3226e5bd601350498b60ccc6bf38fcc, type: 2}
  _gameLogData: {fileID: 11400000, guid: ce2e337b9d608ba4eb704ea36d7d9966, type: 2}
