%YAML 1.1
%TAG !u! tag:unity3d.com,2011:
--- !u!114 &11400000
MonoBehaviour:
  m_ObjectHideFlags: 0
  m_CorrespondingSourceObject: {fileID: 0}
  m_PrefabInstance: {fileID: 0}
  m_PrefabAsset: {fileID: 0}
  m_GameObject: {fileID: 0}
  m_Enabled: 1
  m_EditorHideFlags: 0
  m_Script: {fileID: 11500000, guid: a20e889a15f34f0da8f609954ae263bf, type: 3}
  m_Name: Tower Data Turkey
  m_EditorClassIdentifier: 
  _name: Turkey
  _icon: {fileID: 21300000, guid: 16dae4135c424024ea8313d17eda0228, type: 3}
  _description: 
  _abilities:
    _weaponAbilitySlot:
      _firstAbility: {fileID: 11400000, guid: ea7dd8024f28ba84eb632c78db4cfba7, type: 2}
      _secondAbility: {fileID: 11400000, guid: bc109821ab961424f8ac7d10ac3c1f81, type: 2}
    _passiveAbilitySlot:
      _firstAbility: {fileID: 11400000, guid: c71c632382ad20241a04cb21a38f8a7a, type: 2}
      _secondAbility: {fileID: 11400000, guid: 121e1c61f89253a459b50668f0b2b96c, type: 2}
    _activeAbilitySlot:
      _firstAbility: {fileID: 11400000, guid: 7cbfd53fd44d2a2499c6eaacf491c418, type: 2}
      _secondAbility: {fileID: 11400000, guid: 7e6d37b051172ae4881c8f27b9a3777e, type: 2}
  _creatureType: {fileID: 11400000, guid: 2404fd0df81b2c746abc51a2df6b7ba8, type: 2}
