%YAML 1.1
%TAG !u! tag:unity3d.com,2011:
--- !u!114 &11400000
MonoBehaviour:
  m_ObjectHideFlags: 0
  m_CorrespondingSourceObject: {fileID: 0}
  m_PrefabInstance: {fileID: 0}
  m_PrefabAsset: {fileID: 0}
  m_GameObject: {fileID: 0}
  m_Enabled: 1
  m_EditorHideFlags: 0
  m_Script: {fileID: 11500000, guid: 0711e77ed729493880a11fa7eba52e92, type: 3}
  m_Name: Passive Ability 3
  m_EditorClassIdentifier: 
  _type: {fileID: 11400000, guid: 4ff64157598d68a468a3f14136be0d27, type: 2}
  _name: Passive Ability 3
  _icon: {fileID: 21300000, guid: c3aab7237df394c4890e647a4ae580ea, type: 3}
