%YAML 1.1
%TAG !u! tag:unity3d.com,2011:
--- !u!114 &11400000
MonoBehaviour:
  m_ObjectHideFlags: 0
  m_CorrespondingSourceObject: {fileID: 0}
  m_PrefabInstance: {fileID: 0}
  m_PrefabAsset: {fileID: 0}
  m_GameObject: {fileID: 0}
  m_Enabled: 1
  m_EditorHideFlags: 0
  m_Script: {fileID: 11500000, guid: 2540f93253b74e1eb5c5d6120adbe27d, type: 3}
  m_Name: Tower Inventory Item Legendary
  m_EditorClassIdentifier: 
  _count: 0
  _towerData: {fileID: 11400000, guid: d50217e0301d77748b4bf702326b2fa4, type: 2}
  _qualityType: {fileID: 11400000, guid: 68082c398e041ca4198cf8513bc77cf9, type: 2}
