%YAML 1.1
%TAG !u! tag:unity3d.com,2011:
--- !u!114 &11400000
MonoBehaviour:
  m_ObjectHideFlags: 0
  m_CorrespondingSourceObject: {fileID: 0}
  m_PrefabInstance: {fileID: 0}
  m_PrefabAsset: {fileID: 0}
  m_GameObject: {fileID: 0}
  m_Enabled: 1
  m_EditorHideFlags: 0
  m_Script: {fileID: 11500000, guid: 502a1e711d78480d87b4a43531a97991, type: 3}
  m_Name: Core - Popup System Log Data
  m_EditorClassIdentifier: 
  _parentLogData: {fileID: 11400000, guid: 809fb8556d0ea78448c7be2e8f979785, type: 2}
  _isEnable: 1
  _prefix:
    text: Popup System
    _color: {r: 0.68401927, g: 0.63529414, b: 0.8509804, a: 1}
  _textColor: {r: 1, g: 1, b: 1, a: 1}
