%YAML 1.1
%TAG !u! tag:unity3d.com,2011:
--- !u!114 &11400000
MonoBehaviour:
  m_ObjectHideFlags: 0
  m_CorrespondingSourceObject: {fileID: 0}
  m_PrefabInstance: {fileID: 0}
  m_PrefabAsset: {fileID: 0}
  m_GameObject: {fileID: 0}
  m_Enabled: 1
  m_EditorHideFlags: 0
  m_Script: {fileID: 11500000, guid: 502a1e711d78480d87b4a43531a97991, type: 3}
  m_Name: Game - Build Log Data
  m_EditorClassIdentifier: 
  _parentLogData: {fileID: 11400000, guid: e4f148653ec418943847d40ce811ff97, type: 2}
  _isEnable: 1
  _prefix:
    text: Build
    _color: {r: 0.41718584, g: 0.7075472, b: 0.69257385, a: 1}
  _textColor: {r: 1, g: 1, b: 1, a: 1}
