%YAML 1.1
%TAG !u! tag:unity3d.com,2011:
--- !u!114 &11400000
MonoBehaviour:
  m_ObjectHideFlags: 0
  m_CorrespondingSourceObject: {fileID: 0}
  m_PrefabInstance: {fileID: 0}
  m_PrefabAsset: {fileID: 0}
  m_GameObject: {fileID: 0}
  m_Enabled: 1
  m_EditorHideFlags: 0
  m_Script: {fileID: 11500000, guid: ef647fd8854e4fe2b2770115d09d8904, type: 3}
  m_Name: Pages Container
  m_EditorClassIdentifier: 
  _data:
  - {fileID: 4758806934370946537, guid: 214459a8f000150468fc14bfa05814e6, type: 3}
  - {fileID: 1562705791824611592, guid: 6a917d6877cca4149901d75551ab2c15, type: 3}
