{
    "name": "PlayerInputActions",
    "maps": [
        {
            "name": "Mouse",
            "id": "398e6891-09bf-4fa7-8ccb-9ba6514ea31f",
            "actions": [
                {
                    "name": "Movement",
                    "type": "PassThrough",
                    "id": "a2908b5b-febe-4e30-b306-56091d35d3b8",
                    "expectedControlType": "Vector2",
                    "processors": "",
                    "interactions": "",
                    "initialStateCheck": false
                },
                {
                    "name": "Position",
                    "type": "PassThrough",
                    "id": "9101df7b-84bd-4912-9b37-9e94842edffb",
                    "expectedControlType": "Vector2",
                    "processors": "",
                    "interactions": "",
                    "initialStateCheck": false
                },
                {
                    "name": "Zoom",
                    "type": "Value",
                    "id": "5835e40f-3171-4bc6-bfd2-52c8de93c4a3",
                    "expectedControlType": "Axis",
                    "processors": "",
                    "interactions": "",
                    "initialStateCheck": true
                }
            ],
            "bindings": [
                {
                    "name": "",
                    "id": "f87b1ec2-7f75-441f-b389-e106930c8509",
                    "path": "<Mouse>/delta",
                    "interactions": "",
                    "processors": "NormalizeVector2",
                    "groups": "Mouse",
                    "action": "Movement",
                    "isComposite": false,
                    "isPartOfComposite": false
                },
                {
                    "name": "",
                    "id": "d20e509a-7567-45bd-9622-74f93371cbfb",
                    "path": "<Mouse>/position",
                    "interactions": "",
                    "processors": "",
                    "groups": "Mouse",
                    "action": "Position",
                    "isComposite": false,
                    "isPartOfComposite": false
                },
                {
                    "name": "",
                    "id": "53915a07-cabf-4eb5-bb38-9820f4194e00",
                    "path": "<Mouse>/scroll/y",
                    "interactions": "",
                    "processors": "Clamp(min=-1,max=1)",
                    "groups": "Mouse",
                    "action": "Zoom",
                    "isComposite": false,
                    "isPartOfComposite": false
                }
            ]
        },
        {
            "name": "Touch",
            "id": "265ac225-58e2-4d15-a400-16cedf9024e3",
            "actions": [
                {
                    "name": "Movement",
                    "type": "Value",
                    "id": "32cf6942-f42a-414f-8b18-df078cb9a89a",
                    "expectedControlType": "Vector2",
                    "processors": "",
                    "interactions": "",
                    "initialStateCheck": true
                },
                {
                    "name": "PrimaryPosition",
                    "type": "Value",
                    "id": "3495fbd7-0dc8-47dc-8273-0f8ba7a266a9",
                    "expectedControlType": "Vector2",
                    "processors": "",
                    "interactions": "",
                    "initialStateCheck": true
                },
                {
                    "name": "SecondaryPosition",
                    "type": "Value",
                    "id": "d2ea4e48-7a72-48ff-a9c4-005947b9e25f",
                    "expectedControlType": "Vector2",
                    "processors": "",
                    "interactions": "",
                    "initialStateCheck": true
                }
            ],
            "bindings": [
                {
                    "name": "",
                    "id": "81135417-93c9-40ea-ac4a-51d9901646b9",
                    "path": "<Touchscreen>/delta",
                    "interactions": "",
                    "processors": "NormalizeVector2",
                    "groups": "Touch",
                    "action": "Movement",
                    "isComposite": false,
                    "isPartOfComposite": false
                },
                {
                    "name": "",
                    "id": "1b37730b-14ca-439b-ad0c-2a758a118414",
                    "path": "<Touchscreen>/primaryTouch/position",
                    "interactions": "",
                    "processors": "",
                    "groups": "Touch",
                    "action": "PrimaryPosition",
                    "isComposite": false,
                    "isPartOfComposite": false
                },
                {
                    "name": "",
                    "id": "aa1b6a35-a63b-4c9e-8a56-a4d1588ad600",
                    "path": "<Touchscreen>/touch1/position",
                    "interactions": "",
                    "processors": "",
                    "groups": "Touch",
                    "action": "SecondaryPosition",
                    "isComposite": false,
                    "isPartOfComposite": false
                }
            ]
        }
    ],
    "controlSchemes": [
        {
            "name": "Mouse",
            "bindingGroup": "Mouse",
            "devices": []
        },
        {
            "name": "Touch",
            "bindingGroup": "Touch",
            "devices": []
        }
    ]
}