%YAML 1.1
%TAG !u! tag:unity3d.com,2011:
--- !u!114 &11400000
MonoBehaviour:
  m_ObjectHideFlags: 0
  m_CorrespondingSourceObject: {fileID: 0}
  m_PrefabInstance: {fileID: 0}
  m_PrefabAsset: {fileID: 0}
  m_GameObject: {fileID: 0}
  m_Enabled: 1
  m_EditorHideFlags: 0
  m_Script: {fileID: 11500000, guid: 2540f93253b74e1eb5c5d6120adbe27d, type: 3}
  m_Name: Tower Inventory Item Bug Queen Good
  m_EditorClassIdentifier: 
  _count: 0
  _towerData: {fileID: 11400000, guid: 8a012c2ba03a98843962de7204018fb7, type: 2}
  _qualityType: {fileID: 11400000, guid: c601295504566dd41a5be60d9dbac4fe, type: 2}
